2.6.2018  14:3:38             ::1 https://localhost:44328/                                               200 
2.6.2018  14:3:58             ::1 https://localhost:44328/Content/style.css                              304 
2.6.2018  14:3:58             ::1 https://localhost:44328/Content/404style.css                           304 
2.6.2018  14:3:58             ::1 https://localhost:44328/Scripts/jquery.unobtrusive-ajax.min.js         304 
2.6.2018  14:3:58             ::1 https://localhost:44328/Scripts/copyLink.js                            304 
2.6.2018  14:4:13             ::1 https://localhost:44328/Scripts/jquery-3.3.1.js                        200 
2.6.2018  14:4:18             ::1 https://localhost:44328/Facebook/FacebookLogin                         401 
2.6.2018  14:4:19             ::1 https://localhost:44328/signin-facebook?code=AQAF8438E1lJYjpB-nlqs01x4So9PFIcnzKI5A5TNnfveXXkukFzYQKwVt_4TWTQNsCe-5m8NRkycYMd5FfoL-Kn_etUv_AkDYog_EcwDwiNI_7_X1dLWe_tioYQdmicUrEaRR2yCDBQMx2kPUqVJdClL6VIdYefYpLeLrziaPz5_1wzNKLZNKbBIn1zTjQLLOUBjfXg7pdTFRrHgKt5w8WuGCRRjmL61H3gWCcJuS5FIx8LOPUnLpAB320-TpYlhJxVnjVmCsRzNZ2jKaDdWDC-Xczcmn3YTIV1AqsbiDBtY2HLAxVG2mxTnAAjXMoNsXfFvghPcQvJ6dfrxatL2MHD&state=GDNmSzoOdtjl5-SwZ6yoHLW0Hh6B53MgtAIaVjNw5rEGBFmDwhtnVkLYpSTDf6_KXUPQXzCoSKlaI11T9S11rRidSxXaDUn4LcW84_iSZLWpEF6Ogm3SrIMIRp_OC2x47kHoBeR7jH9eTq5h979kDyRXJ2XPcWY94W7VW1v7XdDz2t_A_gsSjVy5xkHwB6hyF_m4V6_xk02_KV-rQMOlRpR_17wXmYnzECTeQI-Lz76wGPqAWa4CvodH5eX-jsSD 302 
2.6.2018  14:4:20             ::1 https://localhost:44328/Facebook/FacebookLoginCallback                 302 
2.6.2018  14:4:30             ::1 https://localhost:44328/                                               200 
2.6.2018  14:4:47             ::1 https://localhost:44328/Scripts/modernizr-2.8.3.js                     200 
2.6.2018  14:28:7             ::1 https://localhost:44328/                                               200 
2.6.2018  14:28:46            ::1 https://localhost:44328/Group/Create                                   200 
2.6.2018  14:28:47            ::1 https://localhost:44328/Scripts/jquery.validate.js                     304 
2.6.2018  14:28:47            ::1 https://localhost:44328/Scripts/jquery.validate.unobtrusive.js         304 
2.6.2018  14:28:57            ::1 https://localhost:44328/Group/Create                                   500 Session is closed!
Имя объекта: "ISession".
2.6.2018  14:30:0             ::1 https://localhost:44328/                                               200 
2.6.2018  14:30:36            ::1 https://localhost:44328/Group/Create                                   200 
2.6.2018  14:35:26            ::1 https://localhost:44328/                                               200 
2.6.2018  14:39:2             ::1 https://localhost:44328/Group/Create                                   200 
2.6.2018  14:39:7             ::1 https://localhost:44328/Group/Create                                   302 
2.6.2018  14:43:12            ::1 https://localhost:44328/                                               200 
2.6.2018  14:45:38            ::1 https://localhost:44328/                                               200 
2.6.2018  14:46:28            ::1 https://localhost:44328/Group/GroupUsers?groupId=67219741-2cfc-40e7-b31a-fe76065b6daf 500 D:\MEGA\ISMProject\ClassGallery\ClassGallery.Web\Views\Group\GroupUsers.cshtml(42): error CS1061: 'IPhoto' does not contain a definition for 'Link' and no extension method 'Link' accepting a first argument of type 'IPhoto' could be found (are you missing a using directive or an assembly reference?)
2.6.2018  14:46:36            ::1 https://localhost:44328/Group/Create                                   200 
2.6.2018  14:46:42            ::1 https://localhost:44328/Group/Create                                   302 
2.6.2018  14:46:43            ::1 https://localhost:44328/                                               200 
2.6.2018  14:55:36            ::1 https://localhost:44328/                                               200 
2.6.2018  14:56:35            ::1 https://localhost:44328/Group/Create                                   200 
2.6.2018  14:56:41            ::1 https://localhost:44328/Group/Create                                   302 
2.6.2018  14:56:41            ::1 https://localhost:44328/                                               200 
2.6.2018  15:4:29             ::1 https://localhost:44328/                                               200 
2.6.2018  15:7:0              ::1 https://localhost:44328/Group/Create                                   200 
2.6.2018  15:7:7              ::1 https://localhost:44328/Group/Create                                   302 
2.6.2018  15:7:8              ::1 https://localhost:44328/                                               200 
2.6.2018  15:7:48             ::1 https://localhost:44328/Group/Create                                   200 
2.6.2018  15:7:58             ::1 https://localhost:44328/Group/Create                                   302 
2.6.2018  15:8:0              ::1 https://localhost:44328/                                               200 
2.6.2018  15:8:28             ::1 https://localhost:44328/Group/Delete                                   200 
2.6.2018  15:8:31             ::1 https://localhost:44328/Home/Index                                     200 
2.6.2018  15:18:14            ::1 https://localhost:44328/                                               200 
2.6.2018  15:18:58            ::1 https://localhost:44328/Group/Rename?groupId=02583f99-11de-4cae-868f-c5b5dbc811eb&rename=Переименование 200 
2.6.2018  15:19:1             ::1 https://localhost:44328/Group/Rename                                   200 
2.6.2018  15:19:3             ::1 https://localhost:44328/Home/Index                                     200 
2.6.2018  15:19:31            ::1 https://localhost:44328/Group/Delete                                   200 
2.6.2018  15:19:34            ::1 https://localhost:44328/Home/Index                                     200 
